<?xml version="1.0" encoding="utf-8"?>
<!-- Generator: Adobe Illustrator 23.0.1, SVG Export Plug-In . SVG Version: 6.00 Build 0)  -->
<svg version="1.1" id="Layer_1" xmlns="http://www.w3.org/2000/svg" xmlns:xlink="http://www.w3.org/1999/xlink" x="0px" y="0px"
	 width="26.3px" height="18.9px" viewBox="0 0 26.3 18.9" style="enable-background:new 0 0 26.3 18.9;" xml:space="preserve">
<style type="text/css">
	.st0{stroke:#000000;stroke-width:0.75;stroke-miterlimit:10;}
</style>
<path class="st0" d="M3.4,17.9h19.5v0.8H3.4V17.9z M3.4,12.8h19.5V12H3.4V12.8z M3.4,6.2V7h19.5V6.2H3.4z"/>
</svg>
