<?xml version="1.0" encoding="utf-8"?>
<!-- Generated by IcoMoon.io -->
<!DOCTYPE svg PUBLIC "-//W3C//DTD SVG 1.1//EN" "http://www.w3.org/Graphics/SVG/1.1/DTD/svg11.dtd">
<svg version="1.1" xmlns="http://www.w3.org/2000/svg" xmlns:xlink="http://www.w3.org/1999/xlink" width="32" height="32" viewBox="0 0 32 32">
<g id="icomoon-ignore">
</g>
<path d="M18.726 3.773l-1.375 11.16h6.088l-10.165 13.293 1.376-11.16h-6.088l10.165-13.293zM20.265 0.006l-13.861 18.126h7.040l-1.709 13.861 13.861-18.126h-7.040l1.709-13.861z" fill="#fff"></path>
</svg>
